[gd_scene load_steps=17 format=2]

[ext_resource path="res://scripts/Main.gd" type="Script" id=1]
[ext_resource path="res://prefabs/TileSet.tres" type="TileSet" id=2]
[ext_resource path="res://prefabs/Player.tscn" type="PackedScene" id=3]
[ext_resource path="res://imgs/Play.png" type="Texture" id=4]
[ext_resource path="res://scripts/LaunchButton.gd" type="Script" id=5]
[ext_resource path="res://imgs/Stop.png" type="Texture" id=6]
[ext_resource path="res://scripts/ResetButton.gd" type="Script" id=7]
[ext_resource path="res://imgs/Plank.png" type="Texture" id=8]
[ext_resource path="res://scripts/ItemButton.gd" type="Script" id=9]
[ext_resource path="res://imgs/Bumper.png" type="Texture" id=10]
[ext_resource path="res://imgs/FRock.png" type="Texture" id=11]
[ext_resource path="res://imgs/Planche.png" type="Texture" id=12]
[ext_resource path="res://prefabs/Bumper.tscn" type="PackedScene" id=13]

[sub_resource type="RectangleShape2D" id=1]
extents = Vector2( 576, 10 )

[sub_resource type="TileSet" id=2]
0/name = "Planche.png 0"
0/texture = ExtResource( 12 )
0/tex_offset = Vector2( 0, 0 )
0/modulate = Color( 1, 1, 1, 1 )
0/region = Rect2( 0, 384, 64, 64 )
0/tile_mode = 0
0/occluder_offset = Vector2( 0, 0 )
0/navigation_offset = Vector2( 0, 0 )
0/shapes = [  ]
0/z_index = 0

[sub_resource type="RectangleShape2D" id=3]
extents = Vector2( 32, 32 )

[node name="Level4" type="Node2D"]
script = ExtResource( 1 )
next_level_number = 0

[node name="Camera" type="Camera2D" parent="."]
position = Vector2( 512, 150 )
current = true

[node name="BasicTiles" type="TileMap" parent="."]
tile_set = ExtResource( 2 )
format = 1
tile_data = PoolIntArray( -196595, 0, 0, -131059, 0, 0, -65524, 0, 0, -65523, 0, 0, -65522, 0, 0, 11, 0, 0, 12, 0, 0, 13, 0, 0, 14, 0, 0, 65547, 0, 0, 65548, 0, 0, 65549, 0, 0, 65550, 0, 0, 131083, 0, 0, 131084, 0, 0, 131085, 0, 0, 131086, 0, 0, 196608, 0, 0, 196620, 0, 0, 196621, 0, 0, 196622, 0, 0, 196623, 0, 0, 262144, 0, 0, 262145, 0, 0, 262147, 0, 0, 262149, 0, 0, 262151, 0, 0, 262153, 0, 0, 262155, 0, 0, 262156, 0, 0, 262157, 0, 0, 262158, 0, 0, 262159, 0, 0, 327680, 0, 0, 327681, 0, 0, 327682, 0, 0, 327692, 0, 0, 327693, 0, 0, 327694, 0, 0, 327695, 0, 0, 393216, 0, 0, 393217, 0, 0, 393218, 0, 0, 393219, 0, 0, 393220, 0, 0, 393221, 0, 0, 393222, 0, 0, 393226, 0, 0, 393227, 0, 0, 393228, 0, 0, 393229, 0, 0, 393230, 0, 0, 393231, 0, 0 )

[node name="Player" parent="." instance=ExtResource( 3 )]
position = Vector2( 32, 160 )

[node name="DeathZone" type="Area2D" parent="."]
editor/display_folded = true
position = Vector2( 512, 544 )
__meta__ = {
"_edit_group_": true
}

[node name="CollisionShape2D" type="CollisionShape2D" parent="DeathZone"]
shape = SubResource( 1 )

[node name="LaunchButton" type="Button" parent="."]
margin_left = 64.0
margin_top = -128.0
margin_right = 108.0
margin_bottom = -32.0
icon = ExtResource( 4 )
script = ExtResource( 5 )

[node name="ResetButton" type="Button" parent="."]
margin_left = 160.0
margin_top = -128.0
margin_right = 204.0
margin_bottom = -32.0
icon = ExtResource( 6 )
script = ExtResource( 7 )

[node name="PlankButton" type="Button" parent="."]
editor/display_folded = true
margin_left = 896.0
margin_top = -128.0
margin_right = 972.0
margin_bottom = -32.0
icon = ExtResource( 8 )
script = ExtResource( 9 )
nbLeft = 2
id = 1

[node name="NbLeft" type="Label" parent="PlankButton"]
margin_right = 12.0
margin_bottom = 14.0
custom_colors/font_color = Color( 1, 1, 1, 1 )
text = "0"
align = 1
valign = 1

[node name="BumperButton" type="Button" parent="."]
editor/display_folded = true
margin_left = 780.0
margin_top = -128.0
margin_right = 856.0
margin_bottom = -32.0
icon = ExtResource( 10 )
script = ExtResource( 9 )
id = 2

[node name="NbLeft" type="Label" parent="BumperButton"]
margin_right = 12.0
margin_bottom = 14.0
custom_colors/font_color = Color( 1, 1, 1, 1 )
text = "0"
align = 1
valign = 1

[node name="FragileRockButton" type="Button" parent="."]
editor/display_folded = true
margin_left = 672.0
margin_top = -128.0
margin_right = 748.0
margin_bottom = -32.0
icon = ExtResource( 11 )
script = ExtResource( 9 )
nbLeft = 3
id = 3

[node name="NbLeft" type="Label" parent="FragileRockButton"]
margin_right = 12.0
margin_bottom = 14.0
custom_colors/font_color = Color( 1, 1, 1, 1 )
text = "0"
align = 1
valign = 1

[node name="Grid" type="TileMap" parent="."]
visible = false
tile_set = SubResource( 2 )
format = 1
tile_data = PoolIntArray( 0, 0, 0, 1, 0, 0, 2, 0, 0, 3, 0, 0, 4, 0, 0, 5, 0, 0, 6, 0, 0, 7, 0, 0, 8, 0, 0, 9, 0, 0, 10, 0, 0, 11, 0, 0, 12, 0, 0, 13, 0, 0, 14, 0, 0, 15, 0, 0, 65536, 0, 0, 65537, 0, 0, 65538, 0, 0, 65539, 0, 0, 65540, 0, 0, 65541, 0, 0, 65542, 0, 0, 65543, 0, 0, 65544, 0, 0, 65545, 0, 0, 65546, 0, 0, 65547, 0, 0, 65548, 0, 0, 65549, 0, 0, 65550, 0, 0, 65551, 0, 0, 131072, 0, 0, 131073, 0, 0, 131074, 0, 0, 131075, 0, 0, 131076, 0, 0, 131077, 0, 0, 131078, 0, 0, 131079, 0, 0, 131080, 0, 0, 131081, 0, 0, 131082, 0, 0, 131083, 0, 0, 131084, 0, 0, 131085, 0, 0, 131086, 0, 0, 131087, 0, 0, 196608, 0, 0, 196609, 0, 0, 196610, 0, 0, 196611, 0, 0, 196612, 0, 0, 196613, 0, 0, 196614, 0, 0, 196615, 0, 0, 196616, 0, 0, 196617, 0, 0, 196618, 0, 0, 196619, 0, 0, 196620, 0, 0, 196621, 0, 0, 196622, 0, 0, 196623, 0, 0, 262144, 0, 0, 262145, 0, 0, 262146, 0, 0, 262147, 0, 0, 262148, 0, 0, 262149, 0, 0, 262150, 0, 0, 262151, 0, 0, 262152, 0, 0, 262153, 0, 0, 262154, 0, 0, 262155, 0, 0, 262156, 0, 0, 262157, 0, 0, 262158, 0, 0, 262159, 0, 0, 327680, 0, 0, 327681, 0, 0, 327682, 0, 0, 327683, 0, 0, 327684, 0, 0, 327685, 0, 0, 327686, 0, 0, 327687, 0, 0, 327688, 0, 0, 327689, 0, 0, 327690, 0, 0, 327691, 0, 0, 327692, 0, 0, 327693, 0, 0, 327694, 0, 0, 327695, 0, 0, 393216, 0, 0, 393217, 0, 0, 393218, 0, 0, 393219, 0, 0, 393220, 0, 0, 393221, 0, 0, 393222, 0, 0, 393223, 0, 0, 393224, 0, 0, 393225, 0, 0, 393226, 0, 0, 393227, 0, 0, 393228, 0, 0, 393229, 0, 0, 393230, 0, 0, 393231, 0, 0 )

[node name="Goal" type="Area2D" parent="."]
editor/display_folded = true
position = Vector2( 224, 352 )
collision_layer = 2
collision_mask = 2
__meta__ = {
"_edit_group_": true
}

[node name="Sprite" type="Sprite" parent="Goal"]
texture = ExtResource( 12 )
region_enabled = true
region_rect = Rect2( 0, 64, 64, 64 )

[node name="CollisionShape2D" type="CollisionShape2D" parent="Goal"]
shape = SubResource( 3 )

[node name="Bumper" parent="." instance=ExtResource( 13 )]
position = Vector2( 736, 352 )

[node name="Bumper2" parent="." instance=ExtResource( 13 )]
position = Vector2( 736, 224 )
[connection signal="pressed" from="LaunchButton" to="LaunchButton" method="_on_LaunchButton_pressed"]
[connection signal="pressed" from="ResetButton" to="ResetButton" method="_on_ResetButton_pressed"]
[connection signal="pressed" from="PlankButton" to="PlankButton" method="_on_PlankButton_pressed"]
[connection signal="pressed" from="BumperButton" to="BumperButton" method="_on_PlankButton_pressed"]
[connection signal="pressed" from="FragileRockButton" to="FragileRockButton" method="_on_PlankButton_pressed"]
[connection signal="body_entered" from="Goal" to="." method="_on_Goal_body_entered"]
